<svg width="24" height="25" viewBox="0 0 24 25" fill="none" xmlns="http://www.w3.org/2000/svg">
<circle cx="12" cy="12.3174" r="10" fill="#00AD50"/>
<path d="M7 12.3174L10.5 16.3174L16.5 9.31738" stroke="white" stroke-linecap="round" stroke-linejoin="round"/>
</svg>
