<svg width="24" height="24" viewBox="0 0 24 24" fill="none" xmlns="http://www.w3.org/2000/svg">
<mask id="path-1-inside-1" fill="white">
<rect x="7.05493" y="14.5845" width="11.5478" height="2.56618" rx="1"/>
</mask>
<rect x="7.05493" y="14.5845" width="11.5478" height="2.56618" rx="1" stroke="#7E57C2" stroke-width="2.56618" mask="url(#path-1-inside-1)"/>
<path d="M5.5 4.5L9 16" stroke="#7E57C2" stroke-width="2" stroke-linecap="round"/>
<path d="M7.05493 9.45215H12.6539C13.3537 9.45215 14.7535 9.83708 14.7535 11.3768C14.7535 12.9165 14.7535 14.1568 14.7535 14.5845" stroke="#7E57C2" stroke-linecap="round"/>
<line x1="12.6873" y1="16.3677" x2="12.6873" y2="20.5" stroke="#7E57C2" stroke-linecap="round"/>
<line x1="7.55493" y1="20.5" x2="18.1027" y2="20.5" stroke="#7E57C2" stroke-linecap="round"/>
</svg>
