<svg width="24" height="24" viewBox="0 0 24 24" fill="none" xmlns="http://www.w3.org/2000/svg">
<path d="M3.47546 9.5C4.52815 5.18693 8.24086 2 12.6594 2C17.8966 2 22.1421 6.47715 22.1421 12C22.1421 17.5228 17.8966 22 12.6594 22C8.83237 22 5.53483 19.6092 4.03655 16.1667" stroke="#7E57C2" stroke-linecap="round"/>
<path d="M7.8484 15.0027C7.84803 15.0029 7.84766 15.003 7.84724 15.0032C7.69982 15.0666 7.62563 15.2326 7.67699 15.3848C7.72841 15.5375 7.88866 15.6248 8.04479 15.5852L12.4467 14.4697L11.5472 15.7232C11.4819 15.8142 11.4853 15.9377 11.5555 16.025C11.6257 16.1123 11.7456 16.1421 11.8486 16.0978L12.7233 15.7215C12.7484 15.7107 12.7716 15.6959 12.7919 15.6776L15.4791 13.2524L18.6776 11.8702C19.8904 11.3266 19.7907 10.8332 19.7312 10.6949C19.6851 10.5877 19.5752 10.4404 19.3141 10.3478C19.0492 10.2537 18.6835 10.233 18.1964 10.2842C18.0338 10.3013 17.9454 10.2924 17.8518 10.2829C17.5227 10.2498 17.2973 10.2556 16.1444 10.7514L9.83858 13.4641L7.57216 12.0691C7.48668 12.0165 7.38098 12.0088 7.28874 12.0485L6.87666 12.2257C6.79182 12.2622 6.72782 12.3348 6.70231 12.4235C6.67674 12.5123 6.69228 12.6078 6.7447 12.6838L8.23086 14.84L7.8484 15.0027Z" fill="#7E57C2"/>
<path d="M2.14209 5.8667L3.49182 9.49063L7.11575 8.1409" stroke="#7E57C2" stroke-linecap="round" stroke-linejoin="round"/>
</svg>
